[
  {
    "DurationInMiliseconds": 20,
    "HasFailedResponse": false,
    "HasTimedOut": false,
    "Topic": "CharacterCreated",
    "Response": "{}",
    "TargetUrl": "https://localhost/",
    "ResponseStatusCode": 200
  }
]